{
  "$schema": "https://docs.renovatebot.com/renovate-schema.json",
  "extends": [
    "config:recommended"
  ],
  "pinDigests": true,
  "prHourlyLimit": 0,
  "labels": [
    "renovate-bot"
  ],
  "automerge": true,
  "automergeType": "pr",
  "customManagers": [
    {
      "customType": "regex",
      "fileMatch": [
        "^ci/post-update.sh$"
      ],
      "matchStrings": [
        "VERSION=(?<currentValue>.*?)\\s"
      ],
      "depNameTemplate": "kubevirt/kubevirt",
      "datasourceTemplate": "github-tags"
    }
  ],
  "postUpgradeTasks": {
    "commands": [
      "ci/post-update.sh"
    ],
    "fileFilters": [
      "**/**"
    ]
  },
  "platformAutomerge": true,
  "dependencyDashboard": false,
  "kubernetes": {
    "fileMatch": [
      "^kubevirt/chart/templates.*\\.ya?ml(\\.tpl)?$",
      "^kubevirt-crd/chart/templates.*\\.ya?ml(\\.tpl)?$",
      "^tests/chart/templates.*\\.ya?ml(\\.tpl)?$"
    ]
  },
  "packageRules": [
    {
      "matchDatasources": [
        "docker"
      ],
      "matchFileNames": [
        "^kubevirt/",
        "^kubevirt-crd/"
      ],
      "matchUpdateTypes": [
        "major",
        "minor",
        "patch"
      ],
      "enabled": false
    },
    {
      "matchDatasources": [
        "docker"
      ],
      "matchFileNames": [
        "^kubevirt/",
        "^kubevirt-crd/"
      ],
      "matchUpdateTypes": [
        "digest"
      ],
      "postUpgradeTasks": {
        "commands": []
      }
    }
  ]
}
